<?xml version="1.0" encoding="UTF-8" standalone="no"?>
<!-- Created with Inkscape (http://www.inkscape.org/) -->

<svg
   xmlns:dc="http://purl.org/dc/elements/1.1/"
   xmlns:cc="http://creativecommons.org/ns#"
   xmlns:rdf="http://www.w3.org/1999/02/22-rdf-syntax-ns#"
   xmlns:svg="http://www.w3.org/2000/svg"
   xmlns="http://www.w3.org/2000/svg"
   xmlns:xlink="http://www.w3.org/1999/xlink"
   xmlns:sodipodi="http://sodipodi.sourceforge.net/DTD/sodipodi-0.dtd"
   xmlns:inkscape="http://www.inkscape.org/namespaces/inkscape"
   width="128"
   height="128"
   viewBox="0 0 128 128"
   id="svg2"
   version="1.1"
   inkscape:version="0.92.3 (2405546, 2018-03-11)"
   sodipodi:docname="chronocal.svg"
   inkscape:export-filename="/home/frode/ChronoCal.png"
   inkscape:export-xdpi="96.000008"
   inkscape:export-ydpi="96.000008">
  <defs
     id="defs4">
    <linearGradient
       inkscape:collect="always"
       id="linearGradient1199">
      <stop
         id="stop1197"
         offset="0"
         style="stop-color:#518916;stop-opacity:0;" />
      <stop
         style="stop-color:#82dc24;stop-opacity:0.26153848"
         offset="0.74999982"
         id="stop1207" />
      <stop
         id="stop1195"
         offset="1"
         style="stop-color:#4e8515;stop-opacity:1" />
    </linearGradient>
    <linearGradient
       inkscape:collect="always"
       id="linearGradient4223">
      <stop
         style="stop-color:#2d3924;stop-opacity:1"
         offset="0"
         id="stop4225" />
      <stop
         style="stop-color:#6b6820;stop-opacity:1"
         offset="1"
         id="stop4227" />
    </linearGradient>
    <linearGradient
       inkscape:collect="always"
       id="linearGradient4175">
      <stop
         style="stop-color:#ffde28;stop-opacity:1"
         offset="0"
         id="stop4177" />
      <stop
         style="stop-color:#fffc75;stop-opacity:1"
         offset="1"
         id="stop4179" />
    </linearGradient>
    <linearGradient
       inkscape:collect="always"
       xlink:href="#linearGradient4175"
       id="linearGradient4181"
       x1="2.8509893"
       y1="991.85223"
       x2="10.815607"
       y2="998.7655"
       gradientUnits="userSpaceOnUse"
       spreadMethod="reflect"
       gradientTransform="matrix(0.95951291,-0.02568012,0.02544824,0.95968402,-23.36919,42.026028)" />
    <linearGradient
       inkscape:collect="always"
       xlink:href="#linearGradient4175"
       id="linearGradient4189"
       x1="36.644661"
       y1="986.06384"
       x2="51.069183"
       y2="981.81384"
       gradientUnits="userSpaceOnUse"
       spreadMethod="reflect"
       gradientTransform="matrix(0.86124469,-0.50121018,0.50105284,0.86151516,-485.38932,168.91512)" />
    <radialGradient
       inkscape:collect="always"
       xlink:href="#linearGradient4175"
       id="radialGradient4205"
       cx="6.9832501"
       cy="944.04688"
       fx="6.9832501"
       fy="944.04688"
       r="22.098169"
       gradientTransform="matrix(-0.12396075,-0.17617768,0.27544552,-0.1938068,-252.18459,1128.2564)"
       gradientUnits="userSpaceOnUse"
       spreadMethod="reflect" />
    <linearGradient
       inkscape:collect="always"
       xlink:href="#linearGradient4223"
       id="linearGradient4229"
       x1="75.665863"
       y1="1067.2969"
       x2="97.995132"
       y2="1020.0469"
       gradientUnits="userSpaceOnUse"
       spreadMethod="reflect"
       gradientTransform="matrix(0.95951291,-0.02568012,0.02544824,0.95968402,-23.36919,42.026028)" />
    <radialGradient
       inkscape:collect="always"
       xlink:href="#linearGradient4223"
       id="radialGradient4231"
       cx="114.33061"
       cy="998.95135"
       fx="114.33061"
       fy="998.95135"
       r="28.087259"
       gradientTransform="matrix(0.16366897,-0.98316613,2.5867816,0.43089557,-2534.8622,644.50846)"
       gradientUnits="userSpaceOnUse"
       spreadMethod="reflect" />
    <radialGradient
       inkscape:collect="always"
       xlink:href="#linearGradient4175"
       id="radialGradient4233"
       gradientUnits="userSpaceOnUse"
       gradientTransform="matrix(-0.12396075,-0.17617768,0.27544552,-0.1938068,-252.18459,1128.2564)"
       spreadMethod="reflect"
       cx="6.9832501"
       cy="944.04688"
       fx="6.9832501"
       fy="944.04688"
       r="22.098169" />
    <radialGradient
       inkscape:collect="always"
       xlink:href="#linearGradient4175"
       id="radialGradient4237"
       gradientUnits="userSpaceOnUse"
       gradientTransform="matrix(-0.12396075,-0.17617768,0.27544552,-0.1938068,-252.18459,1128.2564)"
       spreadMethod="reflect"
       cx="6.9832501"
       cy="944.04688"
       fx="6.9832501"
       fy="944.04688"
       r="22.098169" />
    <radialGradient
       inkscape:collect="always"
       xlink:href="#linearGradient4175"
       id="radialGradient4241"
       gradientUnits="userSpaceOnUse"
       gradientTransform="matrix(-0.12396075,-0.17617768,0.27544552,-0.1938068,-252.18459,1128.2564)"
       spreadMethod="reflect"
       cx="6.9832501"
       cy="944.04688"
       fx="6.9832501"
       fy="944.04688"
       r="22.098169" />
    <radialGradient
       inkscape:collect="always"
       xlink:href="#linearGradient4175"
       id="radialGradient4245"
       gradientUnits="userSpaceOnUse"
       gradientTransform="matrix(-0.12396075,-0.17617768,0.27544552,-0.1938068,-252.18459,1128.2564)"
       spreadMethod="reflect"
       cx="6.9832501"
       cy="944.04688"
       fx="6.9832501"
       fy="944.04688"
       r="22.098169" />
    <radialGradient
       inkscape:collect="always"
       xlink:href="#linearGradient4175"
       id="radialGradient4249"
       gradientUnits="userSpaceOnUse"
       gradientTransform="matrix(-0.12396075,-0.17617768,0.27544552,-0.1938068,-252.18459,1128.2564)"
       spreadMethod="reflect"
       cx="6.9832501"
       cy="944.04688"
       fx="6.9832501"
       fy="944.04688"
       r="22.098169" />
    <radialGradient
       inkscape:collect="always"
       xlink:href="#linearGradient4175"
       id="radialGradient4253"
       gradientUnits="userSpaceOnUse"
       gradientTransform="matrix(-0.12396075,-0.17617768,0.27544552,-0.1938068,-252.18459,1128.2564)"
       spreadMethod="reflect"
       cx="6.9832501"
       cy="944.04688"
       fx="6.9832501"
       fy="944.04688"
       r="22.098169" />
    <radialGradient
       inkscape:collect="always"
       xlink:href="#linearGradient4223"
       id="radialGradient4257"
       cx="-524.12305"
       cy="899.38354"
       fx="-524.12305"
       fy="899.38354"
       r="22.098169"
       gradientTransform="matrix(0.10162223,0.01230808,-0.01230325,0.10158233,129.06115,901.15285)"
       gradientUnits="userSpaceOnUse"
       spreadMethod="reflect" />
    <radialGradient
       inkscape:collect="always"
       xlink:href="#linearGradient4223"
       id="radialGradient4259"
       gradientUnits="userSpaceOnUse"
       gradientTransform="matrix(0.10162223,0.01230808,-0.01230325,0.10158233,129.06115,901.15285)"
       spreadMethod="reflect"
       cx="-524.12305"
       cy="899.38354"
       fx="-524.12305"
       fy="899.38354"
       r="22.098169" />
    <radialGradient
       inkscape:collect="always"
       xlink:href="#linearGradient4223"
       id="radialGradient4261"
       gradientUnits="userSpaceOnUse"
       gradientTransform="matrix(0.10162223,0.01230808,-0.01230325,0.10158233,129.06115,901.15285)"
       spreadMethod="reflect"
       cx="-524.12305"
       cy="899.38354"
       fx="-524.12305"
       fy="899.38354"
       r="22.098169" />
    <radialGradient
       inkscape:collect="always"
       xlink:href="#linearGradient4223"
       id="radialGradient4263"
       gradientUnits="userSpaceOnUse"
       gradientTransform="matrix(0.10162223,0.01230808,-0.01230325,0.10158233,129.06115,901.15285)"
       spreadMethod="reflect"
       cx="-524.12305"
       cy="899.38354"
       fx="-524.12305"
       fy="899.38354"
       r="22.098169" />
    <radialGradient
       inkscape:collect="always"
       xlink:href="#linearGradient4223"
       id="radialGradient4265"
       gradientUnits="userSpaceOnUse"
       gradientTransform="matrix(0.10162223,0.01230808,-0.01230325,0.10158233,129.06115,901.15285)"
       spreadMethod="reflect"
       cx="-524.12305"
       cy="899.38354"
       fx="-524.12305"
       fy="899.38354"
       r="22.098169" />
    <radialGradient
       inkscape:collect="always"
       xlink:href="#linearGradient4223"
       id="radialGradient4267"
       gradientUnits="userSpaceOnUse"
       gradientTransform="matrix(0.10162223,0.01230808,-0.01230325,0.10158233,129.06115,901.15285)"
       spreadMethod="reflect"
       cx="-524.12305"
       cy="899.38354"
       fx="-524.12305"
       fy="899.38354"
       r="22.098169" />
    <radialGradient
       inkscape:collect="always"
       xlink:href="#linearGradient4223"
       id="radialGradient4269"
       gradientUnits="userSpaceOnUse"
       gradientTransform="matrix(0.10162223,0.01230808,-0.01230325,0.10158233,129.06115,901.15285)"
       spreadMethod="reflect"
       cx="-524.12305"
       cy="899.38354"
       fx="-524.12305"
       fy="899.38354"
       r="22.098169" />
    <filter
       inkscape:collect="always"
       style="color-interpolation-filters:sRGB"
       id="filter4637"
       x="-0.02821746"
       width="1.0564349"
       y="-0.027008984"
       height="1.054018">
      <feGaussianBlur
         inkscape:collect="always"
         stdDeviation="1.3687254"
         id="feGaussianBlur4639" />
    </filter>
    <linearGradient
       inkscape:collect="always"
       xlink:href="#linearGradient4175"
       id="linearGradient4181-3"
       x1="2.8509893"
       y1="991.85223"
       x2="10.815607"
       y2="998.7655"
       gradientUnits="userSpaceOnUse"
       spreadMethod="reflect"
       gradientTransform="matrix(0.95951291,-0.02568012,0.02544824,0.95968402,-27.73524,-886.53854)" />
    <linearGradient
       inkscape:collect="always"
       xlink:href="#linearGradient4223"
       id="linearGradient4229-5"
       x1="75.665863"
       y1="1067.2969"
       x2="97.995132"
       y2="1020.0469"
       gradientUnits="userSpaceOnUse"
       spreadMethod="reflect"
       gradientTransform="matrix(0.95951291,-0.02568012,0.02544824,0.95968402,-27.73524,-886.53854)" />
    <linearGradient
       inkscape:collect="always"
       xlink:href="#linearGradient4223"
       id="linearGradient1057-2"
       gradientUnits="userSpaceOnUse"
       gradientTransform="matrix(0.95951291,-0.02568012,0.02544824,0.95968402,-220.00809,-4.1407926)"
       x1="75.665863"
       y1="1067.2969"
       x2="97.995132"
       y2="1020.0469"
       spreadMethod="reflect" />
    <radialGradient
       inkscape:collect="always"
       xlink:href="#linearGradient1199"
       id="radialGradient2013-3"
       gradientUnits="userSpaceOnUse"
       gradientTransform="matrix(0.93676785,-2.2216993e-6,3.4327414e-6,1.4426219,127.43972,-1426.6896)"
       cx="-100"
       cy="1012.3622"
       fx="-100"
       fy="1012.3622"
       r="34.16" />
    <radialGradient
       inkscape:collect="always"
       xlink:href="#linearGradient1199"
       id="radialGradient2203"
       gradientUnits="userSpaceOnUse"
       gradientTransform="matrix(0.93676785,-2.2216993e-6,3.4327414e-6,1.4426219,130.81222,-441.427)"
       cx="-100"
       cy="1012.3622"
       fx="-100"
       fy="1012.3622"
       r="34.16" />
    <radialGradient
       inkscape:collect="always"
       xlink:href="#linearGradient1199"
       id="radialGradient2225"
       gradientUnits="userSpaceOnUse"
       gradientTransform="matrix(0.93676785,-2.2216993e-6,3.4327414e-6,1.4426219,182.80339,-499.82288)"
       cx="-100"
       cy="1012.3622"
       fx="-100"
       fy="1012.3622"
       r="34.16" />
  </defs>
  <sodipodi:namedview
     id="base"
     pagecolor="#808080"
     bordercolor="#666666"
     borderopacity="1.0"
     inkscape:pageopacity="0"
     inkscape:pageshadow="2"
     inkscape:zoom="2.6542969"
     inkscape:cx="59.735737"
     inkscape:cy="72.900878"
     inkscape:document-units="px"
     inkscape:current-layer="layer1"
     showgrid="true"
     units="px"
     inkscape:snap-global="false"
     inkscape:window-width="1920"
     inkscape:window-height="1061"
     inkscape:window-x="0"
     inkscape:window-y="0"
     inkscape:window-maximized="1"
     inkscape:snap-object-midpoints="true">
    <inkscape:grid
       type="xygrid"
       id="grid4271"
       empspacing="4"
       color="#3f3fff"
       opacity="0.4627451" />
  </sodipodi:namedview>
  <metadata
     id="metadata7">
    <rdf:RDF>
      <cc:Work
         rdf:about="">
        <dc:format>image/svg+xml</dc:format>
        <dc:type
           rdf:resource="http://purl.org/dc/dcmitype/StillImage" />
        <dc:title />
      </cc:Work>
    </rdf:RDF>
  </metadata>
  <g
     inkscape:label="Layer 1"
     inkscape:groupmode="layer"
     id="layer1"
     transform="translate(0,-924.36216)">
    <path
       style="color:#000000;clip-rule:nonzero;display:inline;overflow:visible;visibility:visible;opacity:1;isolation:auto;mix-blend-mode:normal;color-interpolation:sRGB;color-interpolation-filters:linearRGB;solid-color:#000000;solid-opacity:1;fill:#000000;fill-opacity:0.75294118;fill-rule:nonzero;stroke:none;stroke-width:2;stroke-linecap:round;stroke-linejoin:round;stroke-miterlimit:4;stroke-dasharray:none;stroke-dashoffset:0;stroke-opacity:1;marker:none;filter:url(#filter4637);color-rendering:auto;image-rendering:auto;shape-rendering:auto;text-rendering:auto;enable-background:accumulate"
       d="m 77.04664,927.85553 c -16.441025,-0.29049 -26.005486,18.8612 -23.766364,34.50314 a 26.411294,26.425095 77.391311 0 0 -11.07555,9.23294 L 24.798935,981.74974 C 7.8175153,986.36842 0.86461408,1002.8715 4.3275556,1017.3032 6.7134373,1000.5456 16.338349,993.46568 25.889048,991.6159 l 16.093863,9.3922 a 26.411294,26.425095 77.391311 0 0 21.893265,11.8474 c 4.854077,13.2433 0.359542,30.5307 -25.27546,36.2018 18.661778,2.9965 44.139783,-10.0977 36.684681,-38.7158 a 26.411294,26.425095 77.391311 0 0 11.310635,-10.215 l 15.068208,-8.79308 c 16.27153,-4.55417 25.215,-19.06327 11.42628,-39.05515 8.2307,16.67254 3.14699,25.6918 -11.93057,28.82308 L 86.427301,972.50353 A 26.411294,26.425095 77.391311 0 0 65.339772,960.11015 c -1.499691,-17.49598 6.277681,-35.38444 26.562742,-27.22864 -5.394284,-3.4261 -10.379272,-4.94689 -14.855874,-5.02598 z"
       id="path4564"
       inkscape:connector-curvature="0"
       transform="matrix(0.98378654,0,0,0.92721224,3.46199,77.803544)" />
    <circle
       r="32"
       cy="960.63312"
       cx="89.130074"
       id="circle2223"
       style="color:#000000;clip-rule:nonzero;display:inline;overflow:visible;visibility:visible;opacity:1;isolation:auto;mix-blend-mode:normal;color-interpolation:sRGB;color-interpolation-filters:linearRGB;solid-color:#000000;solid-opacity:1;vector-effect:none;fill:url(#radialGradient2225);fill-opacity:1;fill-rule:nonzero;stroke:none;stroke-width:18.89763832;stroke-linecap:butt;stroke-linejoin:miter;stroke-miterlimit:4;stroke-dasharray:none;stroke-dashoffset:0;stroke-opacity:1;marker:none;color-rendering:auto;image-rendering:auto;shape-rendering:auto;text-rendering:auto;enable-background:accumulate" />
    <circle
       style="color:#000000;clip-rule:nonzero;display:inline;overflow:visible;visibility:visible;opacity:1;isolation:auto;mix-blend-mode:normal;color-interpolation:sRGB;color-interpolation-filters:linearRGB;solid-color:#000000;solid-opacity:1;vector-effect:none;fill:url(#radialGradient2203);fill-opacity:1;fill-rule:nonzero;stroke:none;stroke-width:18.89763832;stroke-linecap:butt;stroke-linejoin:miter;stroke-miterlimit:4;stroke-dasharray:none;stroke-dashoffset:0;stroke-opacity:1;marker:none;color-rendering:auto;image-rendering:auto;shape-rendering:auto;text-rendering:auto;enable-background:accumulate"
       id="path1193"
       cx="37.138901"
       cy="1019.029"
       r="32" />
    <path
       style="color:#000000;clip-rule:nonzero;display:inline;overflow:visible;visibility:visible;opacity:1;isolation:auto;mix-blend-mode:normal;color-interpolation:sRGB;color-interpolation-filters:linearRGB;solid-color:#000000;solid-opacity:1;fill:url(#linearGradient4181);fill-opacity:1;fill-rule:nonzero;stroke:url(#linearGradient4229);stroke-width:1;stroke-linecap:round;stroke-linejoin:round;stroke-miterlimit:4;stroke-dasharray:none;stroke-dashoffset:0;stroke-opacity:1;marker:none;color-rendering:auto;image-rendering:auto;shape-rendering:auto;text-rendering:auto;enable-background:accumulate"
       d="m 54.479083,966.11 c 0.234132,0.91005 10.322585,-1.56032 11.706504,-1.68905 C 63.248039,946.19277 70.513833,925.42361 91.874238,934.0122 65.748337,917.41793 49.370842,946.25424 54.479083,966.11 Z M 112.7182,953.09517 c 10.31164,20.88886 -0.6089,29.57406 -26.041048,29.62376 -0.07813,1.35781 -1.085717,10.09467 0.216839,10.18213 24.033549,1.61338 43.133739,-14.70802 25.824219,-39.80589 z M 44.475981,981.68183 C 14.43373,976.22256 1.24307,998.41731 5.71867,1017.0702 9.50878,990.44853 31.8694,988.6346 42.503956,993.26302 c 0.935419,0.0763 1.575381,-10.25209 1.972025,-11.58119 z m 29.922473,24.77337 c -1.261586,0.5288 -10.922681,3.3992 -10.723691,4.6534 5.737233,13.1968 2.01534,31.3942 -24.238775,37.2025 19.161037,3.0768 45.65062,-11.0784 34.962466,-41.8559 z"
       id="path4136"
       inkscape:connector-curvature="0"
       sodipodi:nodetypes="sccscccccccccccc"
       inkscape:transform-center-x="1.5758899"
       inkscape:transform-center-y="2.2803859" />
    <rect
       style="color:#000000;clip-rule:nonzero;display:inline;overflow:visible;visibility:visible;opacity:1;isolation:auto;mix-blend-mode:normal;color-interpolation:sRGB;color-interpolation-filters:linearRGB;solid-color:#000000;solid-opacity:1;fill:#4a00da;fill-opacity:1;fill-rule:nonzero;stroke:none;stroke-width:1;stroke-linecap:round;stroke-linejoin:round;stroke-miterlimit:4;stroke-dasharray:none;stroke-dashoffset:0;stroke-opacity:1;marker:none;color-rendering:auto;image-rendering:auto;shape-rendering:auto;text-rendering:auto;enable-background:accumulate"
       id="rect4319"
       width="53.731796"
       height="53.731796"
       x="-983.23126"
       y="976.73297"
       transform="matrix(0.85209633,-0.52338499,0.87517508,0.48380635,0,0)" />
    <g
       id="g4191"
       style="fill:url(#radialGradient4205);fill-opacity:1;stroke:url(#radialGradient4257);stroke-width:1.00346398"
       transform="matrix(0.92321363,-0.37491487,0.37479716,0.92350358,-364.87424,99.615102)">
      <path
         inkscape:connector-curvature="0"
         id="rect4152"
         d="m 70.416625,965.74319 -4.300347,10.7296 4.240463,1.69954 4.300347,-10.72959 z m -11.308057,28.2142 -4.299191,10.72671 4.240462,1.6995 4.299191,-10.72667 z"
         style="color:#000000;clip-rule:nonzero;display:inline;overflow:visible;visibility:visible;opacity:1;isolation:auto;mix-blend-mode:normal;color-interpolation:sRGB;color-interpolation-filters:linearRGB;solid-color:#000000;solid-opacity:1;fill:url(#radialGradient4233);fill-opacity:1;fill-rule:nonzero;stroke:url(#radialGradient4259);stroke-width:2.00692797;stroke-linecap:round;stroke-linejoin:round;stroke-miterlimit:4;stroke-dasharray:none;stroke-dashoffset:0;stroke-opacity:1;marker:none;color-rendering:auto;image-rendering:auto;shape-rendering:auto;text-rendering:auto;enable-background:accumulate" />
      <path
         inkscape:connector-curvature="0"
         style="color:#000000;clip-rule:nonzero;display:inline;overflow:visible;visibility:visible;opacity:1;isolation:auto;mix-blend-mode:normal;color-interpolation:sRGB;color-interpolation-filters:linearRGB;solid-color:#000000;solid-opacity:1;fill:url(#radialGradient4237);fill-opacity:1;fill-rule:nonzero;stroke:url(#radialGradient4261);stroke-width:2.00692797;stroke-linecap:round;stroke-linejoin:round;stroke-miterlimit:4;stroke-dasharray:none;stroke-dashoffset:0;stroke-opacity:1;marker:none;color-rendering:auto;image-rendering:auto;shape-rendering:auto;text-rendering:auto;enable-background:accumulate"
         d="m 85.064351,991.75253 -10.735869,-4.30284 -1.698554,4.23798 10.735867,4.30284 z m -28.230706,-11.31462 -10.732939,-4.30167 -1.698556,4.23798 10.73294,4.30167 z"
         id="path4157" />
      <path
         inkscape:connector-curvature="0"
         style="color:#000000;clip-rule:nonzero;display:inline;overflow:visible;visibility:visible;opacity:1;isolation:auto;mix-blend-mode:normal;color-interpolation:sRGB;color-interpolation-filters:linearRGB;solid-color:#000000;solid-opacity:1;fill:url(#radialGradient4241);fill-opacity:1;fill-rule:nonzero;stroke:url(#radialGradient4263);stroke-width:2.00692797;stroke-linecap:round;stroke-linejoin:round;stroke-miterlimit:4;stroke-dasharray:none;stroke-dashoffset:0;stroke-opacity:1;marker:none;color-rendering:auto;image-rendering:auto;shape-rendering:auto;text-rendering:auto;enable-background:accumulate"
         d="m 79.820758,971.31014 -9.092146,7.14067 2.823076,3.59084 9.092145,-7.14069 z m -23.908421,18.7769 -9.089664,7.13874 2.823066,3.59082 9.089669,-7.13872 z"
         id="path4167" />
      <path
         id="path4169"
         d="m 79.498811,1001.1504 -7.147363,-9.09114 -3.591225,2.82042 7.147359,9.09112 z m -18.794482,-23.90583 -7.14541,-9.08869 -3.591229,2.82044 7.14541,9.08869 z"
         style="color:#000000;clip-rule:nonzero;display:inline;overflow:visible;visibility:visible;opacity:1;isolation:auto;mix-blend-mode:normal;color-interpolation:sRGB;color-interpolation-filters:linearRGB;solid-color:#000000;solid-opacity:1;fill:url(#radialGradient4245);fill-opacity:1;fill-rule:nonzero;stroke:url(#radialGradient4265);stroke-width:2.00692797;stroke-linecap:round;stroke-linejoin:round;stroke-miterlimit:4;stroke-dasharray:none;stroke-dashoffset:0;stroke-opacity:1;marker:none;color-rendering:auto;image-rendering:auto;shape-rendering:auto;text-rendering:auto;enable-background:accumulate"
         inkscape:connector-curvature="0" />
      <path
         id="path4171"
         d="m 85.182192,980.83021 -11.447712,1.63844 0.649242,4.51996 11.447714,-1.63843 z m -30.102545,4.30836 -11.444575,1.63797 0.649242,4.51998 11.444572,-1.63797 z"
         style="color:#000000;clip-rule:nonzero;display:inline;overflow:visible;visibility:visible;opacity:1;isolation:auto;mix-blend-mode:normal;color-interpolation:sRGB;color-interpolation-filters:linearRGB;solid-color:#000000;solid-opacity:1;fill:url(#radialGradient4249);fill-opacity:1;fill-rule:nonzero;stroke:url(#radialGradient4267);stroke-width:2.00692797;stroke-linecap:round;stroke-linejoin:round;stroke-miterlimit:4;stroke-dasharray:none;stroke-dashoffset:0;stroke-opacity:1;marker:none;color-rendering:auto;image-rendering:auto;shape-rendering:auto;text-rendering:auto;enable-background:accumulate"
         inkscape:connector-curvature="0" />
      <path
         inkscape:connector-curvature="0"
         style="color:#000000;clip-rule:nonzero;display:inline;overflow:visible;visibility:visible;opacity:1;isolation:auto;mix-blend-mode:normal;color-interpolation:sRGB;color-interpolation-filters:linearRGB;solid-color:#000000;solid-opacity:1;fill:url(#radialGradient4253);fill-opacity:1;fill-rule:nonzero;stroke:url(#radialGradient4269);stroke-width:2.00692797;stroke-linecap:round;stroke-linejoin:round;stroke-miterlimit:4;stroke-dasharray:none;stroke-dashoffset:0;stroke-opacity:1;marker:none;color-rendering:auto;image-rendering:auto;shape-rendering:auto;text-rendering:auto;enable-background:accumulate"
         d="m 69.976841,1006.5058 -1.643715,-11.44357 -4.52164,0.64716 1.643721,11.44351 z m -4.322286,-30.09156 -1.643274,-11.4404 -4.521634,0.64715 1.643277,11.4404 z"
         id="path4173" />
    </g>
    <path
       style="color:#000000;clip-rule:nonzero;display:inline;overflow:visible;visibility:visible;opacity:1;isolation:auto;mix-blend-mode:normal;color-interpolation:sRGB;color-interpolation-filters:linearRGB;solid-color:#000000;solid-opacity:1;fill:#ffd462;fill-opacity:1;fill-rule:nonzero;stroke:none;stroke-width:1;stroke-linecap:round;stroke-linejoin:round;stroke-miterlimit:4;stroke-dasharray:none;stroke-dashoffset:0;stroke-opacity:1;marker:none;color-rendering:auto;image-rendering:auto;shape-rendering:auto;text-rendering:auto;enable-background:accumulate"
       d="M 44.556529,970.28455 16.84107,987.32237 45.30784,1003.0729 26.49095,987.10125 Z m 39.067235,-0.89518 18.816906,15.97157 -18.065595,16.81686 27.715455,-17.03797 z"
       id="path4315"
       inkscape:connector-curvature="0" />
    <path
       style="color:#000000;clip-rule:nonzero;display:inline;overflow:visible;visibility:visible;opacity:1;isolation:auto;mix-blend-mode:normal;color-interpolation:sRGB;color-interpolation-filters:linearRGB;solid-color:#000000;solid-opacity:1;fill:url(#linearGradient4189);fill-opacity:1;fill-rule:nonzero;stroke:url(#radialGradient4231);stroke-width:2;stroke-linecap:round;stroke-linejoin:round;stroke-miterlimit:4;stroke-dasharray:none;stroke-dashoffset:0;stroke-opacity:1;marker:none;color-rendering:auto;image-rendering:auto;shape-rendering:auto;text-rendering:auto;enable-background:accumulate"
       d="M 60.513491,959.29003 A 26.975287,26.988159 76.095091 0 0 37.72853,989.89848 26.975287,26.988159 76.095091 0 0 68.34525,1012.6698 26.975287,26.988159 76.095091 0 0 91.132589,982.05819 26.975287,26.988159 76.095091 0 0 60.513491,959.29003 Z m 1.044043,7.11603 a 19.781878,19.791317 76.094703 0 1 22.453013,16.69773 19.781878,19.791317 76.094703 0 1 -16.709799,22.44711 19.781878,19.791317 76.094703 0 1 -22.45299,-16.69759 19.781878,19.791317 76.094703 0 1 16.709776,-22.44725 z"
       id="path4140"
       inkscape:connector-curvature="0" />
    <circle
       style="color:#000000;clip-rule:nonzero;display:inline;overflow:visible;visibility:visible;opacity:1;isolation:auto;mix-blend-mode:normal;color-interpolation:sRGB;color-interpolation-filters:linearRGB;solid-color:#000000;solid-opacity:1;fill:#ffffff;fill-opacity:1;fill-rule:nonzero;stroke:none;stroke-width:1;stroke-linecap:round;stroke-linejoin:round;stroke-miterlimit:4;stroke-dasharray:none;stroke-dashoffset:0;stroke-opacity:0.27966105;marker:none;color-rendering:auto;image-rendering:auto;shape-rendering:auto;text-rendering:auto;enable-background:accumulate"
       id="path4707"
       cx="24.746132"
       cy="1009.8629"
       r="8.8125" />
    <circle
       r="8.625"
       cy="947.98981"
       cx="78.678116"
       id="circle4709"
       style="color:#000000;clip-rule:nonzero;display:inline;overflow:visible;visibility:visible;opacity:1;isolation:auto;mix-blend-mode:normal;color-interpolation:sRGB;color-interpolation-filters:linearRGB;solid-color:#000000;solid-opacity:1;fill:#ffffff;fill-opacity:1;fill-rule:nonzero;stroke:none;stroke-width:1;stroke-linecap:round;stroke-linejoin:round;stroke-miterlimit:4;stroke-dasharray:none;stroke-dashoffset:0;stroke-opacity:0.27966105;marker:none;color-rendering:auto;image-rendering:auto;shape-rendering:auto;text-rendering:auto;enable-background:accumulate" />
    <circle
       r="5.4877524"
       cy="1033.8904"
       cx="52.534088"
       id="circle4711"
       style="color:#000000;clip-rule:nonzero;display:inline;overflow:visible;visibility:visible;opacity:1;isolation:auto;mix-blend-mode:normal;color-interpolation:sRGB;color-interpolation-filters:linearRGB;solid-color:#000000;solid-opacity:1;fill:#ffffff;fill-opacity:1;fill-rule:nonzero;stroke:none;stroke-width:1;stroke-linecap:round;stroke-linejoin:round;stroke-miterlimit:4;stroke-dasharray:none;stroke-dashoffset:0;stroke-opacity:0.27966105;marker:none;color-rendering:auto;image-rendering:auto;shape-rendering:auto;text-rendering:auto;enable-background:accumulate" />
    <circle
       style="color:#000000;clip-rule:nonzero;display:inline;overflow:visible;visibility:visible;opacity:1;isolation:auto;mix-blend-mode:normal;color-interpolation:sRGB;color-interpolation-filters:linearRGB;solid-color:#000000;solid-opacity:1;fill:#ffffff;fill-opacity:1;fill-rule:nonzero;stroke:none;stroke-width:1;stroke-linecap:round;stroke-linejoin:round;stroke-miterlimit:4;stroke-dasharray:none;stroke-dashoffset:0;stroke-opacity:0.27966105;marker:none;color-rendering:auto;image-rendering:auto;shape-rendering:auto;text-rendering:auto;enable-background:accumulate"
       id="circle4713"
       cx="104.66093"
       cy="969.88684"
       r="5.6770926" />
  </g>
</svg>
